[gd_scene load_steps=8 format=2]

[ext_resource path="res://Graphics/Players/Player Blue/playerBlue_stand.png" type="Texture" id=1]
[ext_resource path="res://Graphics/Players/Player Blue/playerBlue_up2.png" type="Texture" id=2]
[ext_resource path="res://Graphics/Players/Player Blue/playerBlue_walk1.png" type="Texture" id=3]
[ext_resource path="res://Graphics/Players/Player Blue/playerBlue_walk2.png" type="Texture" id=4]
[ext_resource path="res://Graphics/Players/Player Blue/playerBlue_walk3.png" type="Texture" id=5]
[ext_resource path="res://Scripts/PlayerAnimation.gd" type="Script" id=6]

[sub_resource type="SpriteFrames" id=1]
animations = [ {
"frames": [ ExtResource( 1 ) ],
"loop": true,
"name": "idle",
"speed": 5.0
}, {
"frames": [ ExtResource( 2 ) ],
"loop": true,
"name": "jump",
"speed": 5.0
}, {
"frames": [ ExtResource( 3 ), ExtResource( 4 ), ExtResource( 5 ), ExtResource( 4 ) ],
"loop": true,
"name": "walk",
"speed": 5.0
} ]

[node name="PlayerAnimation" type="AnimatedSprite"]
frames = SubResource( 1 )
animation = "walk"
frame = 3
script = ExtResource( 6 )
