[gd_scene load_steps=3 format=2]

[ext_resource path="res://Tilesets/GreenTiles.tres" type="TileSet" id=1]
[ext_resource path="res://Scenes/Player.tscn" type="PackedScene" id=2]

[node name="Level1" type="Node2D"]

[node name="TileMap" type="TileMap" parent="."]
tile_set = ExtResource( 1 )
collision_layer = 2
format = 1
tile_data = PoolIntArray( 262142, 4, 0, 262143, 5, 0, 196671, 1, 0, 327678, 2, 0, 327679, 2, 0, 262168, 8, 0, 262169, 4, 0, 262170, 4, 0, 262171, 4, 0, 262172, 5, 0, 262176, 3, 0, 262177, 4, 0, 262178, 4, 0, 262179, 4, 0, 262180, 4, 0, 262181, 4, 0, 262182, 5, 0, 262186, 6, 0, 262190, 3, 0, 262191, 9, 0, 393214, 2, 0, 393215, 2, 0, 327703, 8, 0, 327704, 17, 0, 327705, 2, 0, 327706, 2, 0, 327707, 2, 0, 327708, 2, 0, 327712, 2, 0, 327713, 2, 0, 327714, 2, 0, 327715, 2, 0, 327716, 2, 0, 327717, 2, 0, 327718, 2, 0, 327722, 7, 0, 327726, 2, 0, 327727, 18, 0, 327728, 9, 0, 327739, 1, 0, 327747, 1, 0, 458750, 2, 0, 458751, 2, 0, 393238, 8, 0, 393239, 17, 0, 393240, 2, 0, 393241, 2, 0, 393242, 7, 0, 393243, 2, 0, 393244, 2, 0, 393248, 2, 0, 393249, 2, 0, 393250, 7, 0, 393251, 2, 0, 393252, 2, 0, 393253, 2, 0, 393254, 2, 0, 393258, 2, 0, 393262, 2, 0, 393263, 16, 0, 393264, 18, 0, 393265, 9, 0, 524286, 2, 0, 524287, 2, 0, 458773, 8, 0, 458774, 17, 0, 458775, 2, 0, 458776, 2, 0, 458777, 2, 0, 458778, 2, 0, 458779, 2, 0, 458780, 2, 0, 458784, 2, 0, 458785, 2, 0, 458786, 2, 0, 458787, 16, 0, 458788, 2, 0, 458789, 2, 0, 458790, 2, 0, 458794, 2, 0, 458798, 2, 0, 458799, 2, 0, 458800, 2, 0, 458801, 18, 0, 458802, 4, 0, 458803, 5, 0, 458807, 1, 0, 458823, 1, 0, 589822, 2, 0, 589823, 2, 0, 524308, 8, 0, 524309, 17, 0, 524310, 2, 0, 524311, 2, 0, 524312, 7, 0, 524313, 2, 0, 524314, 2, 0, 524315, 2, 0, 524316, 2, 0, 524320, 2, 0, 524321, 2, 0, 524322, 2, 0, 524323, 2, 0, 524324, 7, 0, 524325, 2, 0, 524326, 2, 0, 524330, 2, 0, 524334, 2, 0, 524335, 2, 0, 524336, 2, 0, 524337, 2, 0, 524338, 2, 0, 524339, 2, 0, 655358, 2, 0, 655359, 13, 0, 589824, 4, 0, 589825, 4, 0, 589826, 4, 0, 589827, 4, 0, 589828, 4, 0, 589829, 4, 0, 589830, 4, 0, 589831, 4, 0, 589832, 4, 0, 589833, 4, 0, 589834, 4, 0, 589835, 4, 0, 589836, 4, 0, 589837, 4, 0, 589838, 4, 0, 589839, 4, 0, 589840, 4, 0, 589841, 4, 0, 589842, 4, 0, 589843, 4, 0, 589844, 17, 0, 589845, 2, 0, 589846, 2, 0, 589847, 2, 0, 589848, 2, 0, 589849, 2, 0, 589850, 2, 0, 589851, 2, 0, 589852, 2, 0, 589856, 2, 0, 589857, 2, 0, 589858, 2, 0, 589859, 2, 0, 589860, 2, 0, 589861, 2, 0, 589862, 2, 0, 589866, 2, 0, 589870, 2, 0, 589871, 2, 0, 589872, 2, 0, 589873, 2, 0, 589874, 2, 0, 589875, 2, 0, 589899, 3, 0, 589900, 4, 0, 589901, 4, 0, 589902, 4, 0, 589903, 4, 0, 589904, 5, 0, 720894, 2, 0, 720895, 2, 0, 655360, 2, 0, 655361, 2, 0, 655362, 2, 0, 655363, 2, 0, 655364, 2, 0, 655365, 2, 0, 655366, 2, 0, 655367, 2, 0, 655368, 16, 0, 655369, 2, 0, 655370, 2, 0, 655371, 2, 0, 655372, 2, 0, 655373, 2, 0, 655374, 2, 0, 655375, 2, 0, 655376, 2, 0, 655377, 7, 0, 655378, 2, 0, 655379, 2, 0, 655380, 2, 0, 655381, 2, 0, 655382, 2, 0, 655383, 2, 0, 655384, 2, 0, 655385, 2, 0, 655386, 2, 0, 655387, 2, 0, 655388, 2, 0, 655392, 2, 0, 655393, 2, 0, 655394, 2, 0, 655395, 2, 0, 655396, 2, 0, 655397, 2, 0, 655398, 2, 0, 655402, 2, 0, 655406, 2, 0, 655407, 7, 0, 655408, 2, 0, 655409, 2, 0, 655410, 2, 0, 655411, 2, 0, 655435, 2, 0, 655436, 2, 0, 655437, 2, 0, 655438, 2, 0, 655439, 2, 0, 655440, 2, 0, 786430, 2, 0, 786431, 2, 0, 720896, 2, 0, 720897, 2, 0, 720898, 2, 0, 720899, 2, 0, 720900, 2, 0, 720901, 2, 0, 720902, 2, 0, 720903, 2, 0, 720904, 2, 0, 720905, 2, 0, 720906, 2, 0, 720907, 2, 0, 720908, 2, 0, 720909, 2, 0, 720910, 2, 0, 720911, 2, 0, 720912, 2, 0, 720913, 2, 0, 720914, 2, 0, 720915, 2, 0, 720916, 2, 0, 720917, 2, 0, 720918, 2, 0, 720919, 2, 0, 720920, 2, 0, 720921, 2, 0, 720922, 2, 0, 720923, 2, 0, 720924, 2, 0, 720928, 2, 0, 720929, 2, 0, 720930, 2, 0, 720931, 2, 0, 720932, 2, 0, 720933, 2, 0, 720934, 2, 0, 720938, 2, 0, 720942, 2, 0, 720943, 2, 0, 720944, 2, 0, 720945, 2, 0, 720946, 7, 0, 720947, 2, 0, 720971, 2, 0, 720972, 2, 0, 720973, 2, 0, 720974, 2, 0, 720975, 2, 0, 720976, 2, 0, 851966, 2, 0, 851967, 2, 0, 786432, 2, 0, 786433, 16, 0, 786434, 2, 0, 786435, 2, 0, 786436, 2, 0, 786437, 2, 0, 786438, 2, 0, 786439, 2, 0, 786440, 2, 0, 786441, 2, 0, 786442, 2, 0, 786443, 2, 0, 786444, 2, 0, 786445, 2, 0, 786446, 2, 0, 786447, 2, 0, 786448, 2, 0, 786449, 2, 0, 786450, 2, 0, 786451, 2, 0, 786452, 2, 0, 786453, 2, 0, 786454, 2, 0, 786455, 2, 0, 786456, 2, 0, 786457, 2, 0, 786458, 2, 0, 786459, 2, 0, 786460, 2, 0, 786464, 2, 0, 786465, 2, 0, 786466, 7, 0, 786467, 2, 0, 786468, 2, 0, 786469, 2, 0, 786470, 2, 0, 786474, 2, 0, 786478, 2, 0, 786479, 2, 0, 786480, 2, 0, 786481, 2, 0, 786482, 2, 0, 786483, 2, 0, 786507, 2, 0, 786508, 2, 0, 786509, 2, 0, 786510, 7, 0, 786511, 2, 0, 786512, 2, 0, 917502, 2, 0, 917503, 2, 0, 851968, 2, 0, 851969, 2, 0, 851970, 2, 0, 851971, 2, 0, 851972, 2, 0, 851973, 2, 0, 851974, 2, 0, 851975, 2, 0, 851976, 2, 0, 851977, 2, 0, 851978, 2, 0, 851979, 2, 0, 851980, 16, 0, 851981, 2, 0, 851982, 2, 0, 851983, 2, 0, 851984, 2, 0, 851985, 2, 0, 851986, 2, 0, 851987, 2, 0, 851988, 2, 0, 851989, 2, 0, 851990, 7, 0, 851991, 2, 0, 851992, 2, 0, 851993, 2, 0, 851994, 2, 0, 851995, 2, 0, 851996, 2, 0, 852000, 2, 0, 852001, 2, 0, 852002, 2, 0, 852003, 2, 0, 852004, 2, 0, 852005, 2, 0, 852006, 2, 0, 852010, 2, 0, 852014, 2, 0, 852015, 2, 0, 852016, 2, 0, 852017, 2, 0, 852018, 2, 0, 852019, 2, 0, 852043, 2, 0, 852044, 2, 0, 852045, 2, 0, 852046, 2, 0, 852047, 2, 0, 852048, 2, 0 )

[node name="Player" parent="." instance=ExtResource( 2 )]
position = Vector2( 45.4478, 548.872 )
